ANLY512_FinalProject_ExploratoryAnalysis.utf8
…
subDF %>% 
  group_by(format(subDF$Date.time, '%dd')) %>%
  count(Violation.Type) %>% 
  mutate(DailyFreq = n/sum(n))

## # A tibble: 62 x 4
## # Groups:   format(subDF$Date.time, "%dd") [31]
##    `format(subDF$Date.time, "%dd")` Violation.Type     n DailyFreq
##    <chr>                            <fct>          <int>     <dbl>
##  1 01d                              Citation        7525     0.411
##  2 01d                              Warning        10763     0.589
##  3 02d                              Citation        6621     0.385
##  4 02d                              Warning        10577     0.615
##  5 03d                              Citation        7450     0.398
##  6 03d                              Warning        11269     0.602
##  7 04d                              Citation        7518     0.393
##  8 04d                              Warning        11613     0.607
##  9 05d                              Citation        7682     0.394
## 10 05d                              Warning        11797     0.606
## # ... with 52 more rows
…
subDF %>% 
  group_by(format(subDF$Date.time, '%H')) %>%
  count(Violation.Type) %>% 
  mutate(DailyFreq = n/sum(n))

## # A tibble: 48 x 4
## # Groups:   format(subDF$Date.time, "%H") [24]
##    `format(subDF$Date.time, "%H")` Violation.Type     n DailyFreq
##    <chr>                           <fct>          <int>     <dbl>
##  1 00                              Citation       15672     0.405
##  2 00                              Warning        23062     0.595
##  3 01                              Citation       13807     0.450
##  4 01                              Warning        16891     0.550
##  5 02                              Citation       12593     0.523
##  6 02                              Warning        11470     0.477
##  7 03                              Citation       11221     0.628
##  8 03                              Warning         6656     0.372
##  9 04                              Citation        7535     0.678
## 10 04                              Warning         3581     0.322
## # ... with 38 more rows
…
